{
    "pool_configs": [{
            "algorithm": "ergo",
            "wallet": "9epn7wM6Cas5tGwMrqgaqkZxqznNZSzDRNcAcDQS5rZSHzSYZE7",
            "url": ["34.220.119.216:443"],
            "password": "",
            "lhr_only": false,
            "blockchain_fee": false,
            "max_dual_autotune_drop": 0.92
        }, {
            "algorithm": "kaspa",
            "wallet": "kaspa:qqcd9q4kgzd8tct6sq0ldhfn677gv8g24zzxdnkfamvueclqle78v5h7vxwh8",
            "url": ["18.222.196.217:443"],
            "password": "",
            "lhr_only": false,
            "blockchain_fee": false,
            "username": "DWAR",
            "max_dual_autotune_drop": 0.92
        }],
    "pool": [0, 1],
    "intensity": [0],
    "lang": "en",
    "rig_name": "DWAR",
    "log_file": "result.log",
    "clear_log_file": true,
    "nvidia_only": true,
    "amd_only": false,
    "disable_opencl": false,
    "lock_config": false,
    "extra_dev_fee": 0.0,
    "cache_dag": 0,
    "zil_only": false,
    "x_display": ":0",
    "start_x": false,
    "advanced_config": false,
    "advanced_device_timings": false,
    "lhr_stability": [100],
    "lhr_exception_reboot": false,
    "no_color": true,
    "oc_delay_ms": 100,
    "device_overrides": [{
            "uid": "0:4",
            "name": "Tesla T4",
            "start_mining": true,
            "lhr_stability": [100],
            "oc_fan_speed": [-1],
            "oc_power_limit": [0],
            "oc_core_clock_offset": [-200, 50],
            "oc_memory_clock_offset": [1100, 0],
            "oc_lock_core_clock": [0],
            "oc_lock_memory_clock": [0, 810]
        }]
}
